%YAML 1.1
%TAG !u! tag:unity3d.com,2011:
--- !u!1 &6958335913531291131
GameObject:
  m_ObjectHideFlags: 0
  m_CorrespondingSourceObject: {fileID: 0}
  m_PrefabInstance: {fileID: 0}
  m_PrefabAsset: {fileID: 0}
  serializedVersion: 6
  m_Component:
  - component: {fileID: 6958335913531291128}
  - component: {fileID: 6958335913531291129}
  - component: {fileID: 6958335913531291130}
  m_Layer: 0
  m_Name: VRInteractionManager
  m_TagString: Untagged
  m_Icon: {fileID: 0}
  m_NavMeshLayer: 0
  m_StaticEditorFlags: 0
  m_IsActive: 1
--- !u!4 &6958335913531291128
Transform:
  m_ObjectHideFlags: 0
  m_CorrespondingSourceObject: {fileID: 0}
  m_PrefabInstance: {fileID: 0}
  m_PrefabAsset: {fileID: 0}
  m_GameObject: {fileID: 6958335913531291131}
  m_LocalRotation: {x: -0, y: -0, z: -0, w: 1}
  m_LocalPosition: {x: 0, y: 0, z: 0}
  m_LocalScale: {x: 1, y: 1, z: 1}
  m_Children: []
  m_Father: {fileID: 0}
  m_RootOrder: 0
  m_LocalEulerAnglesHint: {x: 0, y: 0, z: 0}
--- !u!114 &6958335913531291129
MonoBehaviour:
  m_ObjectHideFlags: 0
  m_CorrespondingSourceObject: {fileID: 0}
  m_PrefabInstance: {fileID: 0}
  m_PrefabAsset: {fileID: 0}
  m_GameObject: {fileID: 6958335913531291131}
  m_Enabled: 1
  m_EditorHideFlags: 0
  m_Script: {fileID: 11500000, guid: 522b9ca6e2d32a940b4a2a36c727f3df, type: 3}
  m_Name: 
  m_EditorClassIdentifier: 
  lp: {fileID: 0}
  eyeTransform: {fileID: 0}
  layers:
    serializedVersion: 2
    m_Bits: 512
  inputManager: {fileID: 0}
--- !u!114 &6958335913531291130
MonoBehaviour:
  m_ObjectHideFlags: 0
  m_CorrespondingSourceObject: {fileID: 0}
  m_PrefabInstance: {fileID: 0}
  m_PrefabAsset: {fileID: 0}
  m_GameObject: {fileID: 6958335913531291131}
  m_Enabled: 1
  m_EditorHideFlags: 0
  m_Script: {fileID: 11500000, guid: 74d662b7395339e4f98945ee63143f3a, type: 3}
  m_Name: 
  m_EditorClassIdentifier: 
  lp: {fileID: 0}
  eyeTransform: {fileID: 0}
  layers:
    serializedVersion: 2
    m_Bits: 512
  inputManager: {fileID: 0}
  offset: {x: -0.01, y: 0.035, z: 0.05}
  lineColorHit: {r: 0, g: 0.84705883, b: 1, a: 1}
