%YAML 1.1
%TAG !u! tag:unity3d.com,2011:
--- !u!1001 &6173914307467842982
PrefabInstance:
  m_ObjectHideFlags: 0
  serializedVersion: 2
  m_Modification:
    m_TransformParent: {fileID: 0}
    m_Modifications:
    - target: {fileID: 2787178629607972807, guid: 52f87534fdefc6b47aadeae3a66454d8,
        type: 3}
      propertyPath: m_Name
      value: Teleporter
      objectReference: {fileID: 0}
    - target: {fileID: 2787178629607972807, guid: 52f87534fdefc6b47aadeae3a66454d8,
        type: 3}
      propertyPath: m_IsActive
      value: 1
      objectReference: {fileID: 0}
    - target: {fileID: 6759483569300406686, guid: 52f87534fdefc6b47aadeae3a66454d8,
        type: 3}
      propertyPath: target
      value: 
      objectReference: {fileID: 0}
    - target: {fileID: 6759483569300406686, guid: 52f87534fdefc6b47aadeae3a66454d8,
        type: 3}
      propertyPath: offset
      value: 
      objectReference: {fileID: 0}
    - target: {fileID: 8762128706450136148, guid: 52f87534fdefc6b47aadeae3a66454d8,
        type: 3}
      propertyPath: m_LocalPosition.x
      value: 0
      objectReference: {fileID: 0}
    - target: {fileID: 8762128706450136148, guid: 52f87534fdefc6b47aadeae3a66454d8,
        type: 3}
      propertyPath: m_LocalPosition.y
      value: 0
      objectReference: {fileID: 0}
    - target: {fileID: 8762128706450136148, guid: 52f87534fdefc6b47aadeae3a66454d8,
        type: 3}
      propertyPath: m_LocalPosition.z
      value: 0.97
      objectReference: {fileID: 0}
    - target: {fileID: 8762128706450136148, guid: 52f87534fdefc6b47aadeae3a66454d8,
        type: 3}
      propertyPath: m_LocalRotation.x
      value: 0
      objectReference: {fileID: 0}
    - target: {fileID: 8762128706450136148, guid: 52f87534fdefc6b47aadeae3a66454d8,
        type: 3}
      propertyPath: m_LocalRotation.y
      value: 0
      objectReference: {fileID: 0}
    - target: {fileID: 8762128706450136148, guid: 52f87534fdefc6b47aadeae3a66454d8,
        type: 3}
      propertyPath: m_LocalRotation.z
      value: 0
      objectReference: {fileID: 0}
    - target: {fileID: 8762128706450136148, guid: 52f87534fdefc6b47aadeae3a66454d8,
        type: 3}
      propertyPath: m_LocalRotation.w
      value: 1
      objectReference: {fileID: 0}
    - target: {fileID: 8762128706450136148, guid: 52f87534fdefc6b47aadeae3a66454d8,
        type: 3}
      propertyPath: m_RootOrder
      value: 0
      objectReference: {fileID: 0}
    - target: {fileID: 8762128706450136148, guid: 52f87534fdefc6b47aadeae3a66454d8,
        type: 3}
      propertyPath: m_LocalEulerAnglesHint.x
      value: 0
      objectReference: {fileID: 0}
    - target: {fileID: 8762128706450136148, guid: 52f87534fdefc6b47aadeae3a66454d8,
        type: 3}
      propertyPath: m_LocalEulerAnglesHint.y
      value: 0
      objectReference: {fileID: 0}
    - target: {fileID: 8762128706450136148, guid: 52f87534fdefc6b47aadeae3a66454d8,
        type: 3}
      propertyPath: m_LocalEulerAnglesHint.z
      value: 0
      objectReference: {fileID: 0}
    m_RemovedComponents: []
  m_SourcePrefab: {fileID: 100100000, guid: 52f87534fdefc6b47aadeae3a66454d8, type: 3}
